<svg xmlns="http://www.w3.org/2000/svg" width="48" height="23" viewBox="0 0 48 23">
  <g id="Menu" transform="translate(-309 -56.358)">
    <line id="Line_206" data-name="Line 206" x2="23" transform="translate(310.5 57.858)" fill="#fff" stroke="#6c63ff" stroke-linecap="round" stroke-linejoin="round" stroke-width="3"/>
    <line id="Line_207" data-name="Line 207" x2="40" transform="translate(315.5 67.858)" fill="#fff" stroke="#6c63ff" stroke-linecap="round" stroke-linejoin="round" stroke-width="3"/>
    <line id="Line_208" data-name="Line 208" x2="24" transform="translate(318.5 77.858)" fill="#fff" stroke="#6c63ff" stroke-linecap="round" stroke-linejoin="round" stroke-width="3"/>
    <line id="Line_209" data-name="Line 209" x2="7" transform="translate(338.5 57.858)" fill="#fff" stroke="#6c63ff" stroke-linecap="round" stroke-linejoin="round" stroke-width="3"/>
  </g>
</svg>
